MyFlipFlopR_1/simulation/qsim/flipflopR_1.msim.vcd
$comment
	File created using the following command:
		vcd file flipflopR_1.msim.vcd -direction
$end
$date
	Wed Apr 22 16:01:26 2026
$end
$version
	ModelSim Version 10.5b
$end
$timescale
	1ps
$end

$scope module flipflopr_1_vhd_vec_tst $end
$var wire 1 ! C $end
$var wire 1 " E $end
$var wire 1 # I $end
$var wire 1 $ O $end
$var wire 1 % R $end

$scope module i1 $end
$var wire 1 & gnd $end
$var wire 1 ' vcc $end
$var wire 1 ( unknown $end
$var wire 1 ) devoe $end
$var wire 1 * devclrn $end
$var wire 1 + devpor $end
$var wire 1 , ww_devoe $end
$var wire 1 - ww_devclrn $end
$var wire 1 . ww_devpor $end
$var wire 1 / ww_R $end
$var wire 1 0 ww_I $end
$var wire 1 1 ww_C $end
$var wire 1 2 ww_E $end
$var wire 1 3 ww_O $end
$var wire 1 4 \C~combout\ $end
$var wire 1 5 \E~combout\ $end
$var wire 1 6 \I~combout\ $end
$var wire 1 7 \R~combout\ $end
$var wire 1 8 \O~reg0_regout\ $end
$var wire 1 9 \ALT_INV_R~combout\ $end
$upscope $end
$upscope $end
$enddefinitions $end
#0
$dumpvars
0!
1"
0#
0$
0%
0&
1'
x(
1)
1*
1+
1,
1-
1.
0/
00
01
12
03
04
15
06
07
08
19
$end
#50000
1#
10
16
#80000
1!
11
14
#110000
0#
00
06
#150000
1#
10
16
#200000
0#
00
06
#240000
0!
01
04
#250000
1#
10
16
#300000
0#
00
06
#330000
1#
10
16
#370000
0#
00
06
#400000
1!
11
14
#420000
1#
10
16
#450000
0#
00
06
#480000
1#
10
16
#560000
0!
01
04
#590000
0#
00
06
