MyMux4to1/simulation/qsim/MyMux4to1.msim.vcd
$comment
	File created using the following command:
		vcd file MyMux4to1.msim.vcd -direction
$end
$date
	Sun Mar 29 12:28:31 2026
$end
$version
	ModelSim Version 10.5b
$end
$timescale
	1ps
$end

$scope module mymux4to1_vhd_vec_tst $end
$var wire 1 ! A $end
$var wire 1 " B $end
$var wire 1 # C $end
$var wire 1 $ D $end
$var wire 1 % Q $end
$var wire 1 & S [1] $end
$var wire 1 ' S [0] $end

$scope module i1 $end
$var wire 1 ( gnd $end
$var wire 1 ) vcc $end
$var wire 1 * unknown $end
$var wire 1 + devoe $end
$var wire 1 , devclrn $end
$var wire 1 - devpor $end
$var wire 1 . ww_devoe $end
$var wire 1 / ww_devclrn $end
$var wire 1 0 ww_devpor $end
$var wire 1 1 ww_S [1] $end
$var wire 1 2 ww_S [0] $end
$var wire 1 3 ww_A $end
$var wire 1 4 ww_B $end
$var wire 1 5 ww_C $end
$var wire 1 6 ww_D $end
$var wire 1 7 ww_Q $end
$var wire 1 8 \~QUARTUS_CREATED_GND~I_combout\ $end
$var wire 1 9 \D~input_o\ $end
$var wire 1 : \C~input_o\ $end
$var wire 1 ; \S[1]~input_o\ $end
$var wire 1 < \S[0]~input_o\ $end
$var wire 1 = \A~input_o\ $end
$var wire 1 > \B~input_o\ $end
$var wire 1 ? \v3|v3|Q~0_combout\ $end
$var wire 1 @ \ALT_INV_A~input_o\ $end
$var wire 1 A \ALT_INV_B~input_o\ $end
$var wire 1 B \ALT_INV_C~input_o\ $end
$var wire 1 C \ALT_INV_D~input_o\ $end
$var wire 1 D \ALT_INV_S[0]~input_o\ $end
$var wire 1 E \ALT_INV_S[1]~input_o\ $end
$upscope $end
$upscope $end
$enddefinitions $end
#0
$dumpvars
1!
0"
0#
0$
0%
0(
1)
x*
1+
1,
1-
1.
1/
10
13
04
05
06
07
x8
09
0:
1;
1<
1=
0>
0?
0@
1A
1B
1C
0D
0E
1&
1'
11
12
$end
#5000
1"
14
1>
0A
#8500
1$
16
19
0C
1?
17
1%
#10000
0"
04
0>
1A
#15000
1"
1#
14
15
1:
1>
0A
0B
#17000
0$
06
09
1C
0?
07
0%
#20000
0"
04
0>
1A
#25000
1"
14
1>
0A
#25500
1$
16
19
0C
1?
17
1%
#30000
0"
0#
04
05
0:
0>
1A
1B
#34000
0$
06
09
1C
0?
07
0%
#35000
1"
14
1>
0A
#40000
0"
04
0>
1A
#42500
1$
16
19
0C
1?
17
1%
#45000
1"
1#
14
15
1:
1>
0A
0B
#50000
0"
04
0>
1A
#51000
0$
06
09
1C
0?
07
0%
#55000
1"
14
1>
0A
#59500
1$
16
19
0C
1?
17
1%
#60000
0"
0#
04
05
0:
0>
1A
1B
#65000
1"
14
1>
0A
#68000
0$
06
09
1C
0?
07
0%
#70000
0"
04
0>
1A
#75000
1"
1#
14
15
1:
1>
0A
0B
#76500
1$
16
19
0C
1?
17
1%
#80000
0"
04
0>
1A
#85000
1"
0$
14
06
09
1>
0A
1C
0?
07
0%
#90000
0"
0#
04
05
0:
0>
1A
1B
#93500
1$
16
19
0C
1?
17
1%
#95000
1"
14
1>
0A
#100000
0"
04
0>
1A
#102000
0$
06
09
1C
0?
07
0%
#105000
1"
1#
14
15
1:
1>
0A
0B
#110000
0"
04
0>
1A
#110500
1$
16
19
0C
1?
17
1%
#115000
1"
14
1>
0A
#119000
0$
06
09
1C
0?
07
0%
#120000
0"
0#
04
05
0:
0>
1A
1B
#125000
1"
14
1>
0A
#127500
1$
16
19
0C
1?
17
1%
#130000
0"
04
0>
1A
#135000
1"
1#
14
15
1:
1>
0A
0B
#136000
0$
06
09
1C
0?
07
0%
#140000
0"
04
0>
1A
#144500
1$
16
19
0C
1?
17
1%
#145000
1"
14
1>
0A
#150000
0"
0#
04
05
0:
0>
1A
1B
#153000
0$
06
09
1C
0?
07
0%
#155000
1"
14
1>
0A
#160000
0"
04
0>
1A
#161500
1$
16
19
0C
1?
17
1%
#165000
1"
1#
14
15
1:
1>
0A
0B
#170000
0"
0$
04
06
09
0>
1A
1C
0?
07
0%
#175000
1"
14
1>
0A
#178500
1$
16
19
0C
1?
17
1%
#180000
0"
0#
04
05
0:
0>
1A
1B
#185000
1"
14
1>
0A
#187000
0$
06
09
1C
0?
07
0%
#190000
0"
04
0>
1A
#195000
1"
1#
14
15
1:
1>
0A
0B
#195500
1$
16
19
0C
1?
17
1%
#200000
0"
04
0>
1A
#204000
0$
06
09
1C
0?
07
0%
#205000
1"
14
1>
0A
#210000
0"
0#
04
05
0:
0>
1A
1B
#212500
1$
16
19
0C
1?
17
1%
#215000
1"
14
1>
0A
#220000
0"
04
0>
1A
#221000
0$
06
09
1C
0?
07
0%
#225000
1"
1#
14
15
1:
1>
0A
0B
#229500
1$
16
19
0C
1?
17
1%
#230000
0"
04
0>
1A
#235000
1"
14
1>
0A
#238000
0$
06
09
1C
0?
07
0%
#240000
0"
0#
04
05
0:
0>
1A
1B
#245000
1"
14
1>
0A
#246500
1$
16
19
0C
1?
17
1%
#250000
0"
04
0>
1A
#255000
1"
0$
1#
14
06
15
1:
09
1>
0A
1C
0B
0?
07
0%
#260000
0"
04
0>
1A
#263500
1$
16
19
0C
1?
17
1%
#265000
1"
14
1>
0A
#270000
0"
0#
04
05
0:
0>
1A
1B
#272000
0$
06
09
1C
0?
07
0%
#275000
1"
14
1>
0A
#280000
0"
04
0>
1A
#280500
1$
16
19
0C
1?
17
1%
#285000
1"
1#
14
15
1:
1>
0A
0B
#289000
0$
06
09
1C
0?
07
0%
#290000
0"
04
0>
1A
#295000
1"
14
1>
0A
#297500
1$
16
19
0C
1?
17
1%
#300000
0"
0#
04
05
0:
0>
1A
1B
#305000
1"
14
1>
0A
#306000
0$
06
09
1C
0?
07
0%
#310000
0"
04
0>
1A
#314500
1$
16
19
0C
1?
17
1%
#315000
1"
1#
14
15
1:
1>
0A
0B
#320000
0"
04
0>
1A
#323000
0$
06
09
1C
0?
07
0%
#325000
1"
14
1>
0A
#330000
0"
0#
04
05
0:
0>
1A
1B
#331500
1$
16
19
0C
1?
17
1%
#335000
1"
14
1>
0A
#340000
0"
0$
04
06
09
0>
1A
1C
0?
07
0%
#345000
1"
1#
14
15
1:
1>
0A
0B
#348500
1$
16
19
0C
1?
17
1%
#350000
0"
04
0>
1A
#355000
1"
14
1>
0A
#357000
0$
06
09
1C
0?
07
0%
#360000
0"
0#
04
05
0:
0>
1A
1B
#365000
1"
14
1>
0A
#365500
1$
16
19
0C
1?
17
1%
#370000
0"
04
0>
1A
#374000
0$
06
09
1C
0?
07
0%
#375000
1"
1#
14
15
1:
1>
0A
0B
#380000
0"
04
0>
1A
#382500
1$
16
19
0C
1?
17
1%
#385000
1"
14
1>
0A
#390000
0"
0#
04
05
0:
0>
1A
1B
#391000
0$
06
09
1C
0?
07
0%
#395000
1"
14
1>
0A
#399500
1$
16
19
0C
1?
17
1%
#400000
0"
04
0>
1A
#405000
1"
1#
14
15
1:
1>
0A
0B
#408000
0$
06
09
1C
0?
07
0%
#410000
0"
04
0>
1A
#415000
1"
14
1>
0A
#416500
1$
16
19
0C
1?
17
1%
#420000
0"
0#
04
05
0:
0>
1A
1B
#425000
1"
0$
14
06
09
1>
0A
1C
0?
07
0%
#430000
0"
04
0>
1A
#433500
1$
16
19
0C
1?
17
1%
#435000
1"
1#
14
15
1:
1>
0A
0B
#440000
0"
04
0>
1A
#442000
0$
06
09
1C
0?
07
0%
#445000
1"
14
1>
0A
#450000
0"
0#
04
05
0:
0>
1A
1B
#450500
1$
16
19
0C
1?
17
1%
#455000
1"
14
1>
0A
#459000
0$
06
09
1C
0?
07
0%
#460000
0"
04
0>
1A
#465000
1"
1#
14
15
1:
1>
0A
0B
#467500
1$
16
19
0C
1?
17
1%
#470000
0"
04
0>
1A
#475000
1"
14
1>
0A
#476000
0$
06
09
1C
0?
07
0%
#480000
0"
0#
04
05
0:
0>
1A
1B
#484500
1$
16
19
0C
1?
17
1%
#485000
1"
14
1>
0A
#490000
0"
04
0>
1A
#493000
0$
06
09
1C
0?
07
0%
#495000
1"
1#
14
15
1:
1>
0A
0B
#500000
0"
04
0>
1A
#501500
1$
16
19
0C
1?
17
1%
#505000
1"
14
1>
0A
#510000
0"
0$
0#
04
06
05
0:
09
0>
1A
1C
1B
0?
07
0%
#515000
1"
14
1>
0A
#518500
1$
16
19
0C
1?
17
1%
#520000
0"
04
0>
1A
#525000
1"
1#
14
15
1:
1>
0A
0B
#527000
0$
06
09
1C
0?
07
0%
#530000
0"
04
0>
1A
#535000
1"
14
1>
0A
#535500
1$
16
19
0C
1?
17
1%
#540000
0"
0#
04
05
0:
0>
1A
1B
#544000
0$
06
09
1C
0?
07
0%
#545000
1"
14
1>
0A
#550000
0"
04
0>
1A
#552500
1$
16
19
0C
1?
17
1%
#555000
1"
1#
14
15
1:
1>
0A
0B
#560000
0"
04
0>
1A
#561000
0$
06
09
1C
0?
07
0%
#565000
1"
14
1>
0A
#569500
1$
16
19
0C
1?
17
1%
#570000
0"
0#
04
05
0:
0>
1A
1B
#575000
1"
14
1>
0A
#578000
0$
06
09
1C
0?
07
0%
#580000
0"
04
0>
1A
#585000
1"
1#
14
15
1:
1>
0A
0B
#586500
1$
16
19
0C
1?
17
1%
#590000
0"
04
0>
1A
#595000
1"
0$
14
06
09
1>
0A
1C
0?
07
0%
#600000
0"
0#
04
05
0:
0>
1A
1B
#603500
1$
16
19
0C
1?
17
1%
#605000
1"
14
1>
0A
#610000
0"
04
0>
1A
#612000
0$
06
09
1C
0?
07
0%
#615000
1"
1#
14
15
1:
1>
0A
0B
#620000
0"
04
0>
1A
#620500
1$
16
19
0C
1?
17
1%
#625000
1"
14
1>
0A
#629000
0$
06
09
1C
0?
07
0%
#630000
0"
0#
04
05
0:
0>
1A
1B
#635000
1"
14
1>
0A
#637500
1$
16
19
0C
1?
17
1%
#640000
0"
04
0>
1A
#645000
1"
1#
14
15
1:
1>
0A
0B
#646000
0$
06
09
1C
0?
07
0%
#650000
0"
04
0>
1A
#654500
1$
16
19
0C
1?
17
1%
#655000
1"
14
1>
0A
#660000
0"
0#
04
05
0:
0>
1A
1B
#663000
0$
06
09
1C
0?
07
0%
#665000
1"
14
1>
0A
#670000
0"
04
0>
1A
#671500
1$
16
19
0C
1?
17
1%
#675000
1"
1#
14
15
1:
1>
0A
0B
#680000
0"
0$
04
06
09
0>
1A
1C
0?
07
0%
#685000
1"
14
1>
0A
#688500
1$
16
19
0C
1?
17
1%
#690000
0"
0#
04
05
0:
0>
1A
1B
#695000
1"
14
1>
0A
#697000
0$
06
09
1C
0?
07
0%
#700000
0"
04
0>
1A
#705000
1"
1#
14
15
1:
1>
0A
0B
#705500
1$
16
19
0C
1?
17
1%
#710000
0"
04
0>
1A
#714000
0$
06
09
1C
0?
07
0%
#715000
1"
14
1>
0A
#720000
0"
0#
04
05
0:
0>
1A
1B
#722500
1$
16
19
0C
1?
17
1%
#725000
1"
14
1>
0A
#730000
0"
04
0>
1A
#731000
0$
06
09
1C
0?
07
0%
#735000
1"
1#
14
15
1:
1>
0A
0B
#739500
1$
16
19
0C
1?
17
1%
#740000
0"
04
0>
1A
#745000
1"
14
1>
0A
#748000
0$
06
09
1C
0?
07
0%
#750000
0"
0#
04
05
0:
0>
1A
1B
#755000
1"
14
1>
0A
#756500
1$
16
19
0C
1?
17
1%
#760000
0"
04
0>
1A
#765000
1"
0$
1#
14
06
15
1:
09
1>
0A
1C
0B
0?
07
0%
#770000
0"
04
0>
1A
#773500
1$
16
19
0C
1?
17
1%
#775000
1"
14
1>
0A
#780000
0"
0#
04
05
0:
0>
1A
1B
#782000
0$
06
09
1C
0?
07
0%
#785000
1"
14
1>
0A
#790000
0"
04
0>
1A
#790500
1$
16
19
0C
1?
17
1%
#795000
1"
1#
14
15
1:
1>
0A
0B
#799000
0$
06
09
1C
0?
07
0%
#800000
0"
04
0>
1A
#805000
1"
14
1>
0A
#807500
1$
16
19
0C
1?
17
1%
#810000
0"
0#
04
05
0:
0>
1A
1B
#815000
1"
14
1>
0A
#816000
0$
06
09
1C
0?
07
0%
#820000
0"
04
0>
1A
#824500
1$
16
19
0C
1?
17
1%
#825000
1"
1#
14
15
1:
1>
0A
0B
#830000
0"
04
0>
1A
#833000
0$
06
09
1C
0?
07
0%
#835000
1"
14
1>
0A
#840000
0"
0#
04
05
0:
0>
1A
1B
#841500
1$
16
19
0C
1?
17
1%
#845000
1"
14
1>
0A
#850000
0"
0$
04
06
09
0>
1A
1C
0?
07
0%
#855000
1"
1#
14
15
1:
1>
0A
0B
#858500
1$
16
19
0C
1?
17
1%
#860000
0"
04
0>
1A
#865000
1"
14
1>
0A
#867000
0$
06
09
1C
0?
07
0%
#870000
0"
0#
04
05
0:
0>
1A
1B
#875000
1"
14
1>
0A
#875500
1$
16
19
0C
1?
17
1%
#880000
0"
04
0>
1A
#884000
0$
06
09
1C
0?
07
0%
#885000
1"
1#
14
15
1:
1>
0A
0B
#890000
0"
04
0>
1A
#892500
1$
16
19
0C
1?
17
1%
#895000
1"
14
1>
0A
#900000
0"
0#
04
05
0:
0>
1A
1B
#901000
0$
06
09
1C
0?
07
0%
#905000
1"
14
1>
0A
#909500
1$
16
19
0C
1?
17
1%
#910000
0"
04
0>
1A
#915000
1"
1#
14
15
1:
1>
0A
0B
#918000
0$
06
09
1C
0?
07
0%
#920000
0"
04
0>
1A
#925000
1"
14
1>
0A
#926500
1$
16
19
0C
1?
17
1%
#930000
0"
0#
04
05
0:
0>
1A
1B
#935000
1"
0$
14
06
09
1>
0A
1C
0?
07
0%
#940000
0"
04
0>
1A
#943500
1$
16
19
0C
1?
17
1%
#945000
1"
1#
14
15
1:
1>
0A
0B
#950000
0"
04
0>
1A
#952000
0$
06
09
1C
0?
07
0%
#955000
1"
14
1>
0A
#960000
0"
0#
04
05
0:
0>
1A
1B
#960500
1$
16
19
0C
1?
17
1%
#965000
1"
14
1>
0A
#969000
0$
06
09
1C
0?
07
0%
#970000
0"
04
0>
1A
#975000
1"
1#
14
15
1:
1>
0A
0B
#977500
1$
16
19
0C
1?
17
1%
#980000
0"
04
0>
1A
#985000
1"
14
1>
0A
#986000
0$
06
09
1C
0?
07
0%
#990000
0"
0#
04
05
0:
0>
1A
1B
#994500
1$
16
19
0C
1?
17
1%
#995000
1"
14
1>
0A
