Forwarding_Unit/simulation/qsim/forwarder.msim.vcd
$comment
	File created using the following command:
		vcd file forwarder.msim.vcd -direction
$end
$date
	Fri May 08 12:22:19 2026
$end
$version
	ModelSim Version 10.5b
$end
$timescale
	1ps
$end

$scope module forwarder_vhd_vec_tst $end
$var wire 1 ! ForwardA [1] $end
$var wire 1 " ForwardA [0] $end
$var wire 1 # ForwardB [1] $end
$var wire 1 $ ForwardB [0] $end
$var wire 1 % R1AD [2] $end
$var wire 1 & R1AD [1] $end
$var wire 1 ' R1AD [0] $end
$var wire 1 ( R2AD [2] $end
$var wire 1 ) R2AD [1] $end
$var wire 1 * R2AD [0] $end
$var wire 1 + RegAD_EXMEM [2] $end
$var wire 1 , RegAD_EXMEM [1] $end
$var wire 1 - RegAD_EXMEM [0] $end
$var wire 1 . RegAD_MEMWB [2] $end
$var wire 1 / RegAD_MEMWB [1] $end
$var wire 1 0 RegAD_MEMWB [0] $end

$scope module i1 $end
$var wire 1 1 gnd $end
$var wire 1 2 vcc $end
$var wire 1 3 unknown $end
$var wire 1 4 devoe $end
$var wire 1 5 devclrn $end
$var wire 1 6 devpor $end
$var wire 1 7 ww_devoe $end
$var wire 1 8 ww_devclrn $end
$var wire 1 9 ww_devpor $end
$var wire 1 : ww_R1AD [2] $end
$var wire 1 ; ww_R1AD [1] $end
$var wire 1 < ww_R1AD [0] $end
$var wire 1 = ww_R2AD [2] $end
$var wire 1 > ww_R2AD [1] $end
$var wire 1 ? ww_R2AD [0] $end
$var wire 1 @ ww_RegAD_EXMEM [2] $end
$var wire 1 A ww_RegAD_EXMEM [1] $end
$var wire 1 B ww_RegAD_EXMEM [0] $end
$var wire 1 C ww_RegAD_MEMWB [2] $end
$var wire 1 D ww_RegAD_MEMWB [1] $end
$var wire 1 E ww_RegAD_MEMWB [0] $end
$var wire 1 F ww_ForwardA [1] $end
$var wire 1 G ww_ForwardA [0] $end
$var wire 1 H ww_ForwardB [1] $end
$var wire 1 I ww_ForwardB [0] $end
$var wire 1 J \~QUARTUS_CREATED_GND~I_combout\ $end
$var wire 1 K \RegAD_MEMWB[0]~input_o\ $end
$var wire 1 L \RegAD_MEMWB[1]~input_o\ $end
$var wire 1 M \R1AD[1]~input_o\ $end
$var wire 1 N \R1AD[0]~input_o\ $end
$var wire 1 O \ForwardA~0_combout\ $end
$var wire 1 P \R1AD[2]~input_o\ $end
$var wire 1 Q \RegAD_EXMEM[2]~input_o\ $end
$var wire 1 R \RegAD_EXMEM[0]~input_o\ $end
$var wire 1 S \RegAD_EXMEM[1]~input_o\ $end
$var wire 1 T \Equal0~0_combout\ $end
$var wire 1 U \RegAD_MEMWB[2]~input_o\ $end
$var wire 1 V \ForwardA~1_combout\ $end
$var wire 1 W \R2AD[1]~input_o\ $end
$var wire 1 X \R2AD[2]~input_o\ $end
$var wire 1 Y \R2AD[0]~input_o\ $end
$var wire 1 Z \Equal2~0_combout\ $end
$var wire 1 [ \ForwardB~0_combout\ $end
$var wire 1 \ \ForwardB~1_combout\ $end
$var wire 1 ] \ALT_INV_RegAD_EXMEM[1]~input_o\ $end
$var wire 1 ^ \ALT_INV_RegAD_EXMEM[2]~input_o\ $end
$var wire 1 _ \ALT_INV_Equal0~0_combout\ $end
$var wire 1 ` \ALT_INV_ForwardA~0_combout\ $end
$var wire 1 a \ALT_INV_Equal2~0_combout\ $end
$var wire 1 b \ALT_INV_ForwardB~0_combout\ $end
$var wire 1 c \ALT_INV_RegAD_MEMWB[0]~input_o\ $end
$var wire 1 d \ALT_INV_RegAD_MEMWB[1]~input_o\ $end
$var wire 1 e \ALT_INV_R1AD[2]~input_o\ $end
$var wire 1 f \ALT_INV_RegAD_MEMWB[2]~input_o\ $end
$var wire 1 g \ALT_INV_R1AD[0]~input_o\ $end
$var wire 1 h \ALT_INV_RegAD_EXMEM[0]~input_o\ $end
$var wire 1 i \ALT_INV_R1AD[1]~input_o\ $end
$var wire 1 j \ALT_INV_R2AD[1]~input_o\ $end
$var wire 1 k \ALT_INV_R2AD[0]~input_o\ $end
$var wire 1 l \ALT_INV_R2AD[2]~input_o\ $end
$upscope $end
$upscope $end
$enddefinitions $end
#0
$dumpvars
01
12
x3
14
15
16
17
18
19
xJ
1K
0L
1M
0N
0O
0P
0Q
0R
0S
0T
0U
0V
0W
1X
0Y
0Z
0[
0\
1]
1^
1_
1`
1a
1b
0c
1d
1e
1f
1g
1h
0i
1j
1k
0l
0%
1&
0'
1(
0)
0*
0+
0,
0-
0.
0/
10
0:
1;
0<
1=
0>
0?
0@
0A
0B
0C
0D
1E
0F
0G
0H
0I
0!
0"
0#
0$
$end
#80000
0&
0;
0M
1i
1T
0_
1F
1!
#160000
1'
1<
1N
0g
1O
0T
1_
0`
1V
0F
0!
1G
1"
#240000
0'
1&
0(
0<
1;
0=
0X
1M
0N
1g
0i
1l
1Z
0O
1`
0a
0V
1H
1#
0G
0"
#320000
1*
1?
1Y
0k
0Z
1[
0b
1a
1\
0H
0#
1I
1$
#400000
0&
0;
0M
1i
1T
0_
1F
1!
#480000
0*
1'
0?
1<
1N
0Y
1k
0g
1O
0T
1Z
0[
1b
0a
1_
0`
1V
0\
1H
0F
1#
0!
0I
1G
0$
1"
#560000
0'
0<
0N
1g
0O
1T
0_
1`
0V
1F
1!
0G
0"
#640000
1'
1*
1<
1?
1Y
1N
0g
0k
0Z
1[
1O
0T
1_
0`
0b
1a
1\
1V
0F
0H
0!
0#
1G
1I
1"
1$
