trapUnit/simulation/qsim/trapUnit.msim.vcd
$comment
	File created using the following command:
		vcd file trapUnit.msim.vcd -direction
$end
$date
	Tue May 19 20:05:18 2026
$end
$version
	ModelSim Version 10.5b
$end
$timescale
	1ps
$end

$scope module trapunit_vhd_vec_tst $end
$var wire 1 ! endOfRunning $end
$var wire 1 " OpCode [3] $end
$var wire 1 # OpCode [2] $end
$var wire 1 $ OpCode [1] $end
$var wire 1 % OpCode [0] $end

$scope module i1 $end
$var wire 1 & gnd $end
$var wire 1 ' vcc $end
$var wire 1 ( unknown $end
$var wire 1 ) devoe $end
$var wire 1 * devclrn $end
$var wire 1 + devpor $end
$var wire 1 , ww_devoe $end
$var wire 1 - ww_devclrn $end
$var wire 1 . ww_devpor $end
$var wire 1 / ww_OpCode [3] $end
$var wire 1 0 ww_OpCode [2] $end
$var wire 1 1 ww_OpCode [1] $end
$var wire 1 2 ww_OpCode [0] $end
$var wire 1 3 ww_endOfRunning $end
$var wire 1 4 \~QUARTUS_CREATED_GND~I_combout\ $end
$var wire 1 5 \OpCode[1]~input_o\ $end
$var wire 1 6 \OpCode[2]~input_o\ $end
$var wire 1 7 \OpCode[3]~input_o\ $end
$var wire 1 8 \OpCode[0]~input_o\ $end
$var wire 1 9 \Equal0~0_combout\ $end
$var wire 1 : \ALT_INV_OpCode[3]~input_o\ $end
$var wire 1 ; \ALT_INV_OpCode[2]~input_o\ $end
$var wire 1 < \ALT_INV_OpCode[1]~input_o\ $end
$var wire 1 = \ALT_INV_OpCode[0]~input_o\ $end
$upscope $end
$upscope $end
$enddefinitions $end
#0
$dumpvars
0!
0&
1'
x(
1)
1*
1+
1,
1-
1.
03
x4
05
06
07
08
09
1:
1;
1<
1=
0"
0#
0$
0%
0/
00
01
02
$end
#80000
1%
12
18
0=
#160000
0%
1$
02
11
15
08
1=
0<
#240000
1%
12
18
0=
#320000
0%
0$
1#
02
01
10
16
05
08
1=
1<
0;
#400000
1%
12
18
0=
#480000
0%
1$
02
11
15
08
1=
0<
#560000
1%
12
18
0=
#640000
0%
0$
0#
1"
02
01
00
1/
17
06
05
08
1=
1<
1;
0:
#720000
1%
12
18
0=
#800000
0%
1$
02
11
15
08
1=
0<
#880000
1%
12
18
0=
#960000
0%
0$
1#
02
01
10
16
05
08
1=
1<
0;
#1040000
1%
12
18
0=
#1120000
0%
1$
02
11
15
08
1=
0<
19
13
1!
#1200000
1%
12
18
0=
09
03
0!
