MyPseudoRegisterZero/simulation/qsim/MyPseudoRegisterZero.msim.vcd
$comment
	File created using the following command:
		vcd file MyPseudoRegisterZero.msim.vcd -direction
$end
$date
	Wed Apr 22 17:43:29 2026
$end
$version
	ModelSim Version 10.5b
$end
$timescale
	1ps
$end

$scope module mypseudoregisterzero_vhd_vec_tst $end
$var wire 1 ! Clock $end
$var wire 1 " Enable $end
$var wire 1 # Input [15] $end
$var wire 1 $ Input [14] $end
$var wire 1 % Input [13] $end
$var wire 1 & Input [12] $end
$var wire 1 ' Input [11] $end
$var wire 1 ( Input [10] $end
$var wire 1 ) Input [9] $end
$var wire 1 * Input [8] $end
$var wire 1 + Input [7] $end
$var wire 1 , Input [6] $end
$var wire 1 - Input [5] $end
$var wire 1 . Input [4] $end
$var wire 1 / Input [3] $end
$var wire 1 0 Input [2] $end
$var wire 1 1 Input [1] $end
$var wire 1 2 Input [0] $end
$var wire 1 3 Output [15] $end
$var wire 1 4 Output [14] $end
$var wire 1 5 Output [13] $end
$var wire 1 6 Output [12] $end
$var wire 1 7 Output [11] $end
$var wire 1 8 Output [10] $end
$var wire 1 9 Output [9] $end
$var wire 1 : Output [8] $end
$var wire 1 ; Output [7] $end
$var wire 1 < Output [6] $end
$var wire 1 = Output [5] $end
$var wire 1 > Output [4] $end
$var wire 1 ? Output [3] $end
$var wire 1 @ Output [2] $end
$var wire 1 A Output [1] $end
$var wire 1 B Output [0] $end
$var wire 1 C Reset_n $end

$scope module i1 $end
$var wire 1 D gnd $end
$var wire 1 E vcc $end
$var wire 1 F unknown $end
$var wire 1 G devoe $end
$var wire 1 H devclrn $end
$var wire 1 I devpor $end
$var wire 1 J ww_devoe $end
$var wire 1 K ww_devclrn $end
$var wire 1 L ww_devpor $end
$var wire 1 M ww_Input [15] $end
$var wire 1 N ww_Input [14] $end
$var wire 1 O ww_Input [13] $end
$var wire 1 P ww_Input [12] $end
$var wire 1 Q ww_Input [11] $end
$var wire 1 R ww_Input [10] $end
$var wire 1 S ww_Input [9] $end
$var wire 1 T ww_Input [8] $end
$var wire 1 U ww_Input [7] $end
$var wire 1 V ww_Input [6] $end
$var wire 1 W ww_Input [5] $end
$var wire 1 X ww_Input [4] $end
$var wire 1 Y ww_Input [3] $end
$var wire 1 Z ww_Input [2] $end
$var wire 1 [ ww_Input [1] $end
$var wire 1 \ ww_Input [0] $end
$var wire 1 ] ww_Clock $end
$var wire 1 ^ ww_Enable $end
$var wire 1 _ ww_Reset_n $end
$var wire 1 ` ww_Output [15] $end
$var wire 1 a ww_Output [14] $end
$var wire 1 b ww_Output [13] $end
$var wire 1 c ww_Output [12] $end
$var wire 1 d ww_Output [11] $end
$var wire 1 e ww_Output [10] $end
$var wire 1 f ww_Output [9] $end
$var wire 1 g ww_Output [8] $end
$var wire 1 h ww_Output [7] $end
$var wire 1 i ww_Output [6] $end
$var wire 1 j ww_Output [5] $end
$var wire 1 k ww_Output [4] $end
$var wire 1 l ww_Output [3] $end
$var wire 1 m ww_Output [2] $end
$var wire 1 n ww_Output [1] $end
$var wire 1 o ww_Output [0] $end
$var wire 1 p \Input[0]~input_o\ $end
$var wire 1 q \Input[1]~input_o\ $end
$var wire 1 r \Input[2]~input_o\ $end
$var wire 1 s \Input[3]~input_o\ $end
$var wire 1 t \Input[4]~input_o\ $end
$var wire 1 u \Input[5]~input_o\ $end
$var wire 1 v \Input[6]~input_o\ $end
$var wire 1 w \Input[7]~input_o\ $end
$var wire 1 x \Input[8]~input_o\ $end
$var wire 1 y \Input[9]~input_o\ $end
$var wire 1 z \Input[10]~input_o\ $end
$var wire 1 { \Input[11]~input_o\ $end
$var wire 1 | \Input[12]~input_o\ $end
$var wire 1 } \Input[13]~input_o\ $end
$var wire 1 ~ \Input[14]~input_o\ $end
$var wire 1 !! \Input[15]~input_o\ $end
$var wire 1 "! \Clock~input_o\ $end
$var wire 1 #! \Enable~input_o\ $end
$var wire 1 $! \Reset_n~input_o\ $end
$var wire 1 %! \~QUARTUS_CREATED_GND~I_combout\ $end
$upscope $end
$upscope $end
$enddefinitions $end
#0
$dumpvars
1!
1"
xC
0D
1E
xF
1G
1H
1I
1J
1K
1L
1]
1^
x_
0p
1q
1r
1s
0t
0u
1v
1w
1x
0y
0z
1{
1|
1}
1~
1!!
1"!
1#!
x$!
x%!
1#
1$
1%
1&
1'
0(
0)
1*
1+
1,
0-
0.
1/
10
11
02
1M
1N
1O
1P
1Q
0R
0S
1T
1U
1V
0W
0X
1Y
1Z
1[
0\
0`
0a
0b
0c
0d
0e
0f
0g
0h
0i
0j
0k
0l
0m
0n
0o
03
04
05
06
07
08
09
0:
0;
0<
0=
0>
0?
0@
0A
0B
$end
#40000
0"
0^
0#!
#80000
0!
0]
0"!
#120000
1!
1]
1"!
#160000
0!
1"
0$
0%
0,
1-
1.
0/
00
01
12
0]
1^
1\
0[
0Z
0Y
1X
1W
0V
0O
0N
0~
0}
0v
1u
1t
0s
0r
0q
1p
1#!
0"!
#280000
1!
0"
1]
0^
0#!
1"!
#320000
1"
1$
1,
0-
0.
11
0#
0'
1(
0*
1^
1[
0X
0W
1V
0T
1R
0Q
1N
0M
0!!
1~
0{
1z
0x
1v
0u
0t
1q
1#!
#360000
0"
0!
0^
0]
0"!
0#!
#440000
1"
1^
1#!
#480000
1-
1.
01
1#
1'
1*
10
02
0+
0\
0[
1Z
1X
1W
0U
1T
1Q
1M
1!!
1{
1x
0w
1u
1t
1r
0q
0p
#560000
0"
1!
0^
1]
1"!
0#!
#600000
1"
0!
1^
0]
0"!
1#!
#640000
1!
0.
11
0#
0'
00
12
1+
0$
0,
1/
0&
1)
1]
1\
1[
0Z
1Y
0X
0V
1U
1S
0Q
0P
0N
0M
0!!
0~
0|
0{
1y
1w
0v
0t
1s
0r
1q
1p
1"!
#680000
0"
0^
0#!
#800000
0!
1.
01
02
0+
1&
0)
0-
1%
0]
0\
0[
1X
0W
0U
0S
1P
1O
1}
1|
0y
0w
0u
1t
0q
0p
0"!
#840000
1"
1^
1#!
#920000
1!
1]
1"!
