MyFlipFlopF_16/simulation/qsim/MyFlipFlopF_16.msim.vcd
$comment
	File created using the following command:
		vcd file MyFlipFlopF_16.msim.vcd -direction
$end
$date
	Wed Apr 22 17:11:10 2026
$end
$version
	ModelSim Version 10.5b
$end
$timescale
	1ps
$end

$scope module myflipflopf_16_vhd_vec_tst $end
$var wire 1 ! C $end
$var wire 1 " E $end
$var wire 1 # I [15] $end
$var wire 1 $ I [14] $end
$var wire 1 % I [13] $end
$var wire 1 & I [12] $end
$var wire 1 ' I [11] $end
$var wire 1 ( I [10] $end
$var wire 1 ) I [9] $end
$var wire 1 * I [8] $end
$var wire 1 + I [7] $end
$var wire 1 , I [6] $end
$var wire 1 - I [5] $end
$var wire 1 . I [4] $end
$var wire 1 / I [3] $end
$var wire 1 0 I [2] $end
$var wire 1 1 I [1] $end
$var wire 1 2 I [0] $end
$var wire 1 3 O [15] $end
$var wire 1 4 O [14] $end
$var wire 1 5 O [13] $end
$var wire 1 6 O [12] $end
$var wire 1 7 O [11] $end
$var wire 1 8 O [10] $end
$var wire 1 9 O [9] $end
$var wire 1 : O [8] $end
$var wire 1 ; O [7] $end
$var wire 1 < O [6] $end
$var wire 1 = O [5] $end
$var wire 1 > O [4] $end
$var wire 1 ? O [3] $end
$var wire 1 @ O [2] $end
$var wire 1 A O [1] $end
$var wire 1 B O [0] $end
$var wire 1 C R $end

$scope module i1 $end
$var wire 1 D gnd $end
$var wire 1 E vcc $end
$var wire 1 F unknown $end
$var wire 1 G devoe $end
$var wire 1 H devclrn $end
$var wire 1 I devpor $end
$var wire 1 J ww_devoe $end
$var wire 1 K ww_devclrn $end
$var wire 1 L ww_devpor $end
$var wire 1 M ww_R $end
$var wire 1 N ww_I [15] $end
$var wire 1 O ww_I [14] $end
$var wire 1 P ww_I [13] $end
$var wire 1 Q ww_I [12] $end
$var wire 1 R ww_I [11] $end
$var wire 1 S ww_I [10] $end
$var wire 1 T ww_I [9] $end
$var wire 1 U ww_I [8] $end
$var wire 1 V ww_I [7] $end
$var wire 1 W ww_I [6] $end
$var wire 1 X ww_I [5] $end
$var wire 1 Y ww_I [4] $end
$var wire 1 Z ww_I [3] $end
$var wire 1 [ ww_I [2] $end
$var wire 1 \ ww_I [1] $end
$var wire 1 ] ww_I [0] $end
$var wire 1 ^ ww_C $end
$var wire 1 _ ww_E $end
$var wire 1 ` ww_O [15] $end
$var wire 1 a ww_O [14] $end
$var wire 1 b ww_O [13] $end
$var wire 1 c ww_O [12] $end
$var wire 1 d ww_O [11] $end
$var wire 1 e ww_O [10] $end
$var wire 1 f ww_O [9] $end
$var wire 1 g ww_O [8] $end
$var wire 1 h ww_O [7] $end
$var wire 1 i ww_O [6] $end
$var wire 1 j ww_O [5] $end
$var wire 1 k ww_O [4] $end
$var wire 1 l ww_O [3] $end
$var wire 1 m ww_O [2] $end
$var wire 1 n ww_O [1] $end
$var wire 1 o ww_O [0] $end
$var wire 1 p \C~combout\ $end
$var wire 1 q \R~combout\ $end
$var wire 1 r \E~combout\ $end
$var wire 1 s \O[0]~1_combout\ $end
$var wire 1 t \O[0]~reg0_regout\ $end
$var wire 1 u \O[1]~reg0_regout\ $end
$var wire 1 v \O[2]~reg0_regout\ $end
$var wire 1 w \O[3]~reg0_regout\ $end
$var wire 1 x \O[4]~reg0_regout\ $end
$var wire 1 y \O[5]~reg0_regout\ $end
$var wire 1 z \O[6]~reg0_regout\ $end
$var wire 1 { \O[7]~reg0_regout\ $end
$var wire 1 | \O[8]~reg0_regout\ $end
$var wire 1 } \O[9]~reg0_regout\ $end
$var wire 1 ~ \O[10]~reg0_regout\ $end
$var wire 1 !! \O[11]~reg0_regout\ $end
$var wire 1 "! \O[12]~reg0_regout\ $end
$var wire 1 #! \O[13]~reg0_regout\ $end
$var wire 1 $! \O[14]~reg0_regout\ $end
$var wire 1 %! \O[15]~reg0_regout\ $end
$var wire 1 &! \I~combout\ [15] $end
$var wire 1 '! \I~combout\ [14] $end
$var wire 1 (! \I~combout\ [13] $end
$var wire 1 )! \I~combout\ [12] $end
$var wire 1 *! \I~combout\ [11] $end
$var wire 1 +! \I~combout\ [10] $end
$var wire 1 ,! \I~combout\ [9] $end
$var wire 1 -! \I~combout\ [8] $end
$var wire 1 .! \I~combout\ [7] $end
$var wire 1 /! \I~combout\ [6] $end
$var wire 1 0! \I~combout\ [5] $end
$var wire 1 1! \I~combout\ [4] $end
$var wire 1 2! \I~combout\ [3] $end
$var wire 1 3! \I~combout\ [2] $end
$var wire 1 4! \I~combout\ [1] $end
$var wire 1 5! \I~combout\ [0] $end
$var wire 1 6! \ALT_INV_C~combout\ $end
$upscope $end
$upscope $end
$enddefinitions $end
#0
$dumpvars
0!
1"
0C
0D
1E
xF
1G
1H
1I
1J
1K
1L
0M
0^
1_
0p
0q
1r
1s
0t
0u
0v
0w
0x
0y
0z
0{
0|
0}
0~
0!!
0"!
0#!
0$!
0%!
16!
0#
0$
0%
0&
0'
0(
0)
0*
0+
0,
0-
0.
0/
00
01
02
0N
0O
0P
0Q
0R
0S
0T
0U
0V
0W
0X
0Y
0Z
0[
0\
0]
0`
0a
0b
0c
0d
0e
0f
0g
0h
0i
0j
0k
0l
0m
0n
0o
0&!
0'!
0(!
0)!
0*!
0+!
0,!
0-!
0.!
0/!
00!
01!
02!
03!
04!
05!
03
04
05
06
07
08
09
0:
0;
0<
0=
0>
0?
0@
0A
0B
$end
#20000
1!
1^
1p
06!
#40000
0!
1C
0^
1M
1q
0p
16!
#50000
1)
1T
1,!
#60000
1!
1^
1p
06!
#80000
0!
0C
0^
0M
0q
0p
16!
#100000
1!
1^
1p
06!
#120000
0!
1C
0^
1M
1q
0p
16!
1}
1f
19
#140000
1!
1^
1p
06!
#150000
0)
0T
0,!
#160000
0!
0C
0^
0M
0q
0p
16!
0}
0f
09
#180000
1!
1(
1^
1S
1+!
1p
06!
#200000
0!
1C
0^
1M
1q
0p
16!
1~
1e
18
#220000
1!
1)
1^
1T
1,!
1p
06!
#240000
0!
0C
0(
0^
0M
0S
0+!
0q
0p
16!
0~
0e
08
#260000
1!
1^
1p
06!
#280000
0!
1C
0^
1M
1q
0p
16!
1}
1f
19
#290000
1'
1R
1*!
#300000
1!
1^
1p
06!
#320000
0!
0C
0^
0M
0q
0p
16!
0}
0f
09
#330000
0'
0R
0*!
#340000
1!
1^
1p
06!
#350000
0)
0T
0,!
#360000
0!
1C
0^
1M
1q
0p
16!
#380000
1!
1^
1p
06!
#400000
0!
0C
0^
0M
0q
0p
16!
#420000
1!
1^
1p
06!
#440000
0!
1C
0^
1M
1q
0p
16!
#460000
1!
1^
1p
06!
