MyFullAdder1bit/simulation/qsim/MyFullAdder1bit.msim.vcd
$comment
	File created using the following command:
		vcd file MyFullAdder1bit.msim.vcd -direction
$end
$date
	Tue Mar 24 21:25:20 2026
$end
$version
	ModelSim Version 10.5b
$end
$timescale
	1ps
$end

$scope module myfulladder1bit_vhd_vec_tst $end
$var wire 1 ! A $end
$var wire 1 " B $end
$var wire 1 # Cin $end
$var wire 1 $ Cout $end
$var wire 1 % sum $end

$scope module i1 $end
$var wire 1 & gnd $end
$var wire 1 ' vcc $end
$var wire 1 ( unknown $end
$var wire 1 ) devoe $end
$var wire 1 * devclrn $end
$var wire 1 + devpor $end
$var wire 1 , ww_devoe $end
$var wire 1 - ww_devclrn $end
$var wire 1 . ww_devpor $end
$var wire 1 / ww_A $end
$var wire 1 0 ww_B $end
$var wire 1 1 ww_Cin $end
$var wire 1 2 ww_sum $end
$var wire 1 3 ww_Cout $end
$var wire 1 4 \~QUARTUS_CREATED_GND~I_combout\ $end
$var wire 1 5 \B~input_o\ $end
$var wire 1 6 \Cin~input_o\ $end
$var wire 1 7 \A~input_o\ $end
$var wire 1 8 \v3|v4|Q~0_combout\ $end
$var wire 1 9 \v5|Q~combout\ $end
$var wire 1 : \ALT_INV_Cin~input_o\ $end
$var wire 1 ; \ALT_INV_A~input_o\ $end
$var wire 1 < \ALT_INV_B~input_o\ $end
$upscope $end
$upscope $end
$enddefinitions $end
#0
$dumpvars
0!
0"
0#
0$
0%
0&
1'
x(
1)
1*
1+
1,
1-
1.
0/
00
01
02
03
x4
05
06
07
08
09
1:
1;
1<
$end
#125000
1#
11
16
0:
18
12
1%
#250000
0#
1"
01
10
15
06
1:
0<
#375000
1#
11
16
0:
08
19
13
02
1$
0%
#500000
0#
0"
1!
01
00
1/
17
05
06
1:
1<
0;
18
09
03
12
0$
1%
#625000
1#
11
16
0:
08
19
13
02
1$
0%
#750000
0#
1"
01
10
15
06
1:
0<
#875000
1#
11
16
0:
18
12
1%
