MyOr4/simulation/qsim/MyOr4.msim.vcd
$comment
	File created using the following command:
		vcd file MyOr4.msim.vcd -direction
$end
$date
	Wed Mar 25 10:09:44 2026
$end
$version
	ModelSim Version 10.5b
$end
$timescale
	1ps
$end

$scope module myor4_vhd_vec_tst $end
$var wire 1 ! A $end
$var wire 1 " B $end
$var wire 1 # C $end
$var wire 1 $ D $end
$var wire 1 % Q $end

$scope module i1 $end
$var wire 1 & gnd $end
$var wire 1 ' vcc $end
$var wire 1 ( unknown $end
$var wire 1 ) devoe $end
$var wire 1 * devclrn $end
$var wire 1 + devpor $end
$var wire 1 , ww_devoe $end
$var wire 1 - ww_devclrn $end
$var wire 1 . ww_devpor $end
$var wire 1 / ww_A $end
$var wire 1 0 ww_B $end
$var wire 1 1 ww_C $end
$var wire 1 2 ww_D $end
$var wire 1 3 ww_Q $end
$var wire 1 4 \~QUARTUS_CREATED_GND~I_combout\ $end
$var wire 1 5 \B~input_o\ $end
$var wire 1 6 \C~input_o\ $end
$var wire 1 7 \D~input_o\ $end
$var wire 1 8 \A~input_o\ $end
$var wire 1 9 \Q~0_combout\ $end
$var wire 1 : \ALT_INV_D~input_o\ $end
$var wire 1 ; \ALT_INV_C~input_o\ $end
$var wire 1 < \ALT_INV_B~input_o\ $end
$var wire 1 = \ALT_INV_A~input_o\ $end
$upscope $end
$upscope $end
$enddefinitions $end
#0
$dumpvars
0!
0"
0#
0$
0%
0&
1'
x(
1)
1*
1+
1,
1-
1.
0/
00
01
02
03
x4
05
06
07
08
09
1:
1;
1<
1=
$end
#62500
1$
12
17
0:
19
13
1%
#125000
0$
1#
02
11
16
07
1:
0;
#187500
1$
12
17
0:
#250000
0$
0#
1"
02
01
10
15
06
07
1:
1;
0<
#312500
1$
12
17
0:
#375000
0$
1#
02
11
16
07
1:
0;
#437500
1$
12
17
0:
#500000
0$
0#
0"
1!
02
01
00
1/
18
05
06
07
1:
1;
1<
0=
#562500
1$
12
17
0:
#625000
0$
1#
02
11
16
07
1:
0;
#687500
1$
12
17
0:
#750000
0$
0#
1"
02
01
10
15
06
07
1:
1;
0<
#812500
1$
12
17
0:
#875000
0$
1#
02
11
16
07
1:
0;
#937500
1$
12
17
0:
