MyShiftRegister4bit/simulation/qsim/MyShiftRegister4bit.msim.vcd
$comment
	File created using the following command:
		vcd file MyShiftRegister4bit.msim.vcd -direction
$end
$date
	Wed Apr 22 17:48:11 2026
$end
$version
	ModelSim Version 10.5b
$end
$timescale
	1ps
$end

$scope module myshiftregister4bit_vhd_vec_tst $end
$var wire 1 ! Clock $end
$var wire 1 " Enable $end
$var wire 1 # Input $end
$var wire 1 $ Output [3] $end
$var wire 1 % Output [2] $end
$var wire 1 & Output [1] $end
$var wire 1 ' Output [0] $end
$var wire 1 ( Reset_n $end

$scope module i1 $end
$var wire 1 ) gnd $end
$var wire 1 * vcc $end
$var wire 1 + unknown $end
$var wire 1 , devoe $end
$var wire 1 - devclrn $end
$var wire 1 . devpor $end
$var wire 1 / ww_devoe $end
$var wire 1 0 ww_devclrn $end
$var wire 1 1 ww_devpor $end
$var wire 1 2 ww_Input $end
$var wire 1 3 ww_Clock $end
$var wire 1 4 ww_Enable $end
$var wire 1 5 ww_Reset_n $end
$var wire 1 6 ww_Output [3] $end
$var wire 1 7 ww_Output [2] $end
$var wire 1 8 ww_Output [1] $end
$var wire 1 9 ww_Output [0] $end
$var wire 1 : \~QUARTUS_CREATED_GND~I_combout\ $end
$var wire 1 ; \Clock~input_o\ $end
$var wire 1 < \Clock~inputCLKENA0_outclk\ $end
$var wire 1 = \Input~input_o\ $end
$var wire 1 > \v0|O~feeder_combout\ $end
$var wire 1 ? \Reset_n~input_o\ $end
$var wire 1 @ \Enable~input_o\ $end
$var wire 1 A \v0|O~q\ $end
$var wire 1 B \v1|O~feeder_combout\ $end
$var wire 1 C \v1|O~q\ $end
$var wire 1 D \v2|O~feeder_combout\ $end
$var wire 1 E \v2|O~q\ $end
$var wire 1 F \v3|O~feeder_combout\ $end
$var wire 1 G \v3|O~q\ $end
$var wire 1 H \ALT_INV_Input~input_o\ $end
$var wire 1 I \v2|ALT_INV_O~q\ $end
$var wire 1 J \v1|ALT_INV_O~q\ $end
$var wire 1 K \v0|ALT_INV_O~q\ $end
$upscope $end
$upscope $end
$enddefinitions $end
#0
$dumpvars
0!
1"
1#
0(
0)
1*
x+
1,
1-
1.
1/
10
11
12
03
14
05
x:
0;
0<
1=
1>
0?
1@
0A
0B
0C
0D
0E
0F
0G
0H
1I
1J
1K
06
07
08
09
0$
0%
0&
0'
$end
#50000
1!
1(
13
15
1?
1;
1<
1A
0K
1B
16
1$
#100000
0!
0#
03
02
0=
0;
0<
1H
0>
#150000
1!
13
1;
1<
0A
1C
0J
1K
0B
1D
17
06
1%
0$
#200000
0!
1#
03
12
1=
0;
0<
0H
1>
#250000
1!
13
1;
1<
1A
0C
1E
0I
1J
0K
1B
0D
1F
18
07
16
1&
0%
1$
#300000
0!
03
0;
0<
#350000
1!
13
1;
1<
1C
0E
1G
1I
0J
1D
0F
19
08
17
1'
0&
1%
#400000
0!
03
0;
0<
#450000
1!
13
1;
1<
1E
0G
0I
1F
09
18
0'
1&
#500000
0!
0#
03
02
0=
0;
0<
1H
0>
#550000
1!
13
1;
1<
0A
1G
1K
0B
19
06
1'
0$
#600000
0!
03
0;
0<
#650000
1!
13
1;
1<
0C
1J
0D
07
0%
#700000
0!
03
0;
0<
#750000
1!
13
1;
1<
0E
1I
0F
08
0&
