MyRegister16bit/simulation/qsim/MyRegister16bit.msim.vcd
$comment
	File created using the following command:
		vcd file MyRegister16bit.msim.vcd -direction
$end
$date
	Wed Apr 22 14:16:57 2026
$end
$version
	ModelSim Version 10.5b
$end
$timescale
	1ps
$end

$scope module myregister16bit_vhd_vec_tst $end
$var wire 1 ! Clock $end
$var wire 1 " Enable $end
$var wire 1 # Input [15] $end
$var wire 1 $ Input [14] $end
$var wire 1 % Input [13] $end
$var wire 1 & Input [12] $end
$var wire 1 ' Input [11] $end
$var wire 1 ( Input [10] $end
$var wire 1 ) Input [9] $end
$var wire 1 * Input [8] $end
$var wire 1 + Input [7] $end
$var wire 1 , Input [6] $end
$var wire 1 - Input [5] $end
$var wire 1 . Input [4] $end
$var wire 1 / Input [3] $end
$var wire 1 0 Input [2] $end
$var wire 1 1 Input [1] $end
$var wire 1 2 Input [0] $end
$var wire 1 3 Output [15] $end
$var wire 1 4 Output [14] $end
$var wire 1 5 Output [13] $end
$var wire 1 6 Output [12] $end
$var wire 1 7 Output [11] $end
$var wire 1 8 Output [10] $end
$var wire 1 9 Output [9] $end
$var wire 1 : Output [8] $end
$var wire 1 ; Output [7] $end
$var wire 1 < Output [6] $end
$var wire 1 = Output [5] $end
$var wire 1 > Output [4] $end
$var wire 1 ? Output [3] $end
$var wire 1 @ Output [2] $end
$var wire 1 A Output [1] $end
$var wire 1 B Output [0] $end
$var wire 1 C Reset_n $end

$scope module i1 $end
$var wire 1 D gnd $end
$var wire 1 E vcc $end
$var wire 1 F unknown $end
$var wire 1 G devoe $end
$var wire 1 H devclrn $end
$var wire 1 I devpor $end
$var wire 1 J ww_devoe $end
$var wire 1 K ww_devclrn $end
$var wire 1 L ww_devpor $end
$var wire 1 M ww_Input [15] $end
$var wire 1 N ww_Input [14] $end
$var wire 1 O ww_Input [13] $end
$var wire 1 P ww_Input [12] $end
$var wire 1 Q ww_Input [11] $end
$var wire 1 R ww_Input [10] $end
$var wire 1 S ww_Input [9] $end
$var wire 1 T ww_Input [8] $end
$var wire 1 U ww_Input [7] $end
$var wire 1 V ww_Input [6] $end
$var wire 1 W ww_Input [5] $end
$var wire 1 X ww_Input [4] $end
$var wire 1 Y ww_Input [3] $end
$var wire 1 Z ww_Input [2] $end
$var wire 1 [ ww_Input [1] $end
$var wire 1 \ ww_Input [0] $end
$var wire 1 ] ww_Clock $end
$var wire 1 ^ ww_Enable $end
$var wire 1 _ ww_Reset_n $end
$var wire 1 ` ww_Output [15] $end
$var wire 1 a ww_Output [14] $end
$var wire 1 b ww_Output [13] $end
$var wire 1 c ww_Output [12] $end
$var wire 1 d ww_Output [11] $end
$var wire 1 e ww_Output [10] $end
$var wire 1 f ww_Output [9] $end
$var wire 1 g ww_Output [8] $end
$var wire 1 h ww_Output [7] $end
$var wire 1 i ww_Output [6] $end
$var wire 1 j ww_Output [5] $end
$var wire 1 k ww_Output [4] $end
$var wire 1 l ww_Output [3] $end
$var wire 1 m ww_Output [2] $end
$var wire 1 n ww_Output [1] $end
$var wire 1 o ww_Output [0] $end
$var wire 1 p \~QUARTUS_CREATED_GND~I_combout\ $end
$var wire 1 q \Clock~input_o\ $end
$var wire 1 r \Clock~inputCLKENA0_outclk\ $end
$var wire 1 s \Input[0]~input_o\ $end
$var wire 1 t \gen_register:0:vff|O~feeder_combout\ $end
$var wire 1 u \Reset_n~input_o\ $end
$var wire 1 v \Enable~input_o\ $end
$var wire 1 w \gen_register:0:vff|O~q\ $end
$var wire 1 x \Input[1]~input_o\ $end
$var wire 1 y \gen_register:1:vff|O~q\ $end
$var wire 1 z \Input[2]~input_o\ $end
$var wire 1 { \gen_register:2:vff|O~feeder_combout\ $end
$var wire 1 | \gen_register:2:vff|O~q\ $end
$var wire 1 } \Input[3]~input_o\ $end
$var wire 1 ~ \gen_register:3:vff|O~q\ $end
$var wire 1 !! \Input[4]~input_o\ $end
$var wire 1 "! \gen_register:4:vff|O~feeder_combout\ $end
$var wire 1 #! \gen_register:4:vff|O~q\ $end
$var wire 1 $! \Input[5]~input_o\ $end
$var wire 1 %! \gen_register:5:vff|O~feeder_combout\ $end
$var wire 1 &! \gen_register:5:vff|O~q\ $end
$var wire 1 '! \Input[6]~input_o\ $end
$var wire 1 (! \gen_register:6:vff|O~feeder_combout\ $end
$var wire 1 )! \gen_register:6:vff|O~q\ $end
$var wire 1 *! \Input[7]~input_o\ $end
$var wire 1 +! \gen_register:7:vff|O~q\ $end
$var wire 1 ,! \Input[8]~input_o\ $end
$var wire 1 -! \gen_register:8:vff|O~feeder_combout\ $end
$var wire 1 .! \gen_register:8:vff|O~q\ $end
$var wire 1 /! \Input[9]~input_o\ $end
$var wire 1 0! \gen_register:9:vff|O~feeder_combout\ $end
$var wire 1 1! \gen_register:9:vff|O~q\ $end
$var wire 1 2! \Input[10]~input_o\ $end
$var wire 1 3! \gen_register:10:vff|O~feeder_combout\ $end
$var wire 1 4! \gen_register:10:vff|O~q\ $end
$var wire 1 5! \Input[11]~input_o\ $end
$var wire 1 6! \gen_register:11:vff|O~feeder_combout\ $end
$var wire 1 7! \gen_register:11:vff|O~q\ $end
$var wire 1 8! \Input[12]~input_o\ $end
$var wire 1 9! \gen_register:12:vff|O~feeder_combout\ $end
$var wire 1 :! \gen_register:12:vff|O~q\ $end
$var wire 1 ;! \Input[13]~input_o\ $end
$var wire 1 <! \gen_register:13:vff|O~q\ $end
$var wire 1 =! \Input[14]~input_o\ $end
$var wire 1 >! \gen_register:14:vff|O~feeder_combout\ $end
$var wire 1 ?! \gen_register:14:vff|O~q\ $end
$var wire 1 @! \Input[15]~input_o\ $end
$var wire 1 A! \gen_register:15:vff|O~feeder_combout\ $end
$var wire 1 B! \gen_register:15:vff|O~q\ $end
$var wire 1 C! \ALT_INV_Input[15]~input_o\ $end
$var wire 1 D! \ALT_INV_Input[14]~input_o\ $end
$var wire 1 E! \ALT_INV_Input[12]~input_o\ $end
$var wire 1 F! \ALT_INV_Input[11]~input_o\ $end
$var wire 1 G! \ALT_INV_Input[10]~input_o\ $end
$var wire 1 H! \ALT_INV_Input[9]~input_o\ $end
$var wire 1 I! \ALT_INV_Input[8]~input_o\ $end
$var wire 1 J! \ALT_INV_Input[6]~input_o\ $end
$var wire 1 K! \ALT_INV_Input[5]~input_o\ $end
$var wire 1 L! \ALT_INV_Input[4]~input_o\ $end
$var wire 1 M! \ALT_INV_Input[2]~input_o\ $end
$var wire 1 N! \ALT_INV_Input[0]~input_o\ $end
$upscope $end
$upscope $end
$enddefinitions $end
#0
$dumpvars
0!
0"
0C
0D
1E
xF
1G
1H
1I
1J
1K
1L
0]
0^
0_
xp
0q
0r
0s
0t
0u
0v
0w
0x
0y
0z
0{
0|
0}
0~
0!!
0"!
0#!
0$!
0%!
0&!
0'!
0(!
0)!
0*!
0+!
0,!
0-!
0.!
0/!
00!
01!
02!
03!
04!
05!
06!
07!
08!
09!
0:!
0;!
0<!
0=!
0>!
0?!
0@!
0A!
0B!
1C!
1D!
1E!
1F!
1G!
1H!
1I!
1J!
1K!
1L!
1M!
1N!
0#
0$
0%
0&
0'
0(
0)
0*
0+
0,
0-
0.
0/
00
01
02
0M
0N
0O
0P
0Q
0R
0S
0T
0U
0V
0W
0X
0Y
0Z
0[
0\
0`
0a
0b
0c
0d
0e
0f
0g
0h
0i
0j
0k
0l
0m
0n
0o
03
04
05
06
07
08
09
0:
0;
0<
0=
0>
0?
0@
0A
0B
$end
#100000
1!
1]
1q
1r
#200000
0!
1#
1%
1'
1)
1+
1-
1/
11
1"
1C
0]
1[
1Y
1W
1U
1S
1Q
1O
1M
1^
1_
1u
1v
1@!
1;!
15!
1/!
1*!
1$!
1}
1x
0q
0r
0K!
0H!
0F!
0C!
1A!
16!
10!
1%!
#300000
1!
1]
1q
1r
1y
1~
1&!
1+!
11!
17!
1<!
1B!
1`
1b
1d
1f
1h
1j
1l
1n
1A
1?
1=
1;
19
17
15
13
#400000
0!
0%
0)
0-
01
1$
1(
1,
10
0]
0[
1Z
0W
1V
0S
1R
0O
1N
1=!
0;!
12!
0/!
1'!
0$!
1z
0x
0q
0r
0M!
1K!
0J!
1H!
0G!
0D!
1>!
13!
00!
1(!
0%!
1{
#500000
1!
1]
1q
1r
0y
1|
0&!
1)!
01!
14!
0<!
1?!
1a
0b
1e
0f
1i
0j
1m
0n
0A
1@
0=
1<
09
18
05
14
#600000
0!
1%
1-
0(
00
0'
0/
0"
1&
1.
0]
0Z
0Y
1X
1W
0R
0Q
1P
1O
0^
0v
1;!
18!
05!
02!
1$!
1!!
0}
0z
0q
0r
1M!
0L!
0K!
1G!
1F!
0E!
19!
06!
03!
1%!
1"!
0{
#700000
1!
1]
1q
1r
#800000
0!
0%
0-
1(
10
1'
1/
1"
0&
0.
1)
11
0$
0,
0#
0+
1*
12
0]
1\
1[
1Z
1Y
0X
0W
0V
0U
1T
1S
1R
1Q
0P
0O
0N
0M
1^
1v
0@!
0=!
0;!
08!
15!
12!
1/!
1,!
0*!
0'!
0$!
0!!
1}
1z
1x
1s
0q
0r
0N!
0M!
1L!
1K!
1J!
0I!
0H!
0G!
0F!
1E!
1D!
1C!
0A!
0>!
09!
16!
13!
10!
1-!
0(!
0%!
0"!
1{
1t
#900000
1!
1]
1q
1r
1w
1y
0)!
0+!
1.!
11!
0?!
0B!
0`
0a
1f
1g
0h
0i
1n
1o
1B
1A
0<
0;
1:
19
04
03
