MyDecoder3to8/simulation/qsim/MyDecoder3to8.msim.vcd
$comment
	File created using the following command:
		vcd file MyDecoder3to8.msim.vcd -direction
$end
$date
	Mon Mar 30 22:47:23 2026
$end
$version
	ModelSim Version 10.5b
$end
$timescale
	1ps
$end

$scope module mydecoder3to8_vhd_vec_tst $end
$var wire 1 ! Q [7] $end
$var wire 1 " Q [6] $end
$var wire 1 # Q [5] $end
$var wire 1 $ Q [4] $end
$var wire 1 % Q [3] $end
$var wire 1 & Q [2] $end
$var wire 1 ' Q [1] $end
$var wire 1 ( Q [0] $end
$var wire 1 ) S [2] $end
$var wire 1 * S [1] $end
$var wire 1 + S [0] $end

$scope module i1 $end
$var wire 1 , gnd $end
$var wire 1 - vcc $end
$var wire 1 . unknown $end
$var wire 1 / devoe $end
$var wire 1 0 devclrn $end
$var wire 1 1 devpor $end
$var wire 1 2 ww_devoe $end
$var wire 1 3 ww_devclrn $end
$var wire 1 4 ww_devpor $end
$var wire 1 5 ww_S [2] $end
$var wire 1 6 ww_S [1] $end
$var wire 1 7 ww_S [0] $end
$var wire 1 8 ww_Q [7] $end
$var wire 1 9 ww_Q [6] $end
$var wire 1 : ww_Q [5] $end
$var wire 1 ; ww_Q [4] $end
$var wire 1 < ww_Q [3] $end
$var wire 1 = ww_Q [2] $end
$var wire 1 > ww_Q [1] $end
$var wire 1 ? ww_Q [0] $end
$var wire 1 @ \~QUARTUS_CREATED_GND~I_combout\ $end
$var wire 1 A \S[2]~input_o\ $end
$var wire 1 B \S[1]~input_o\ $end
$var wire 1 C \S[0]~input_o\ $end
$var wire 1 D \v4|Q~combout\ $end
$var wire 1 E \v6|Q~0_combout\ $end
$var wire 1 F \v8|Q~0_combout\ $end
$var wire 1 G \v10|Q~0_combout\ $end
$var wire 1 H \v12|Q~0_combout\ $end
$var wire 1 I \v14|Q~0_combout\ $end
$var wire 1 J \v16|Q~0_combout\ $end
$var wire 1 K \v18|Q~0_combout\ $end
$var wire 1 L \ALT_INV_S[1]~input_o\ $end
$var wire 1 M \ALT_INV_S[0]~input_o\ $end
$var wire 1 N \ALT_INV_S[2]~input_o\ $end
$var wire 1 O \v4|ALT_INV_Q~combout\ $end
$upscope $end
$upscope $end
$enddefinitions $end
#0
$dumpvars
0,
1-
x.
1/
10
11
12
13
14
x@
0A
0B
0C
0D
0E
0F
0G
0H
0I
0J
0K
1L
1M
1N
1O
0)
0*
0+
05
06
07
08
09
0:
0;
0<
0=
0>
1?
0!
0"
0#
0$
0%
0&
0'
1(
$end
#100000
1+
17
1C
0M
1D
1E
0O
1>
0?
1'
0(
#200000
0+
1*
07
16
1B
0C
1M
0L
0E
1F
1=
0>
0'
1&
#300000
1+
17
1C
0M
0F
1G
1<
0=
0&
1%
#400000
0+
0*
1)
07
06
15
1A
0B
0C
1M
1L
0N
0G
1H
1;
0<
0%
1$
#500000
1+
17
1C
0M
0H
1I
1:
0;
0$
1#
#600000
0+
1*
07
16
1B
0C
1M
0L
0I
1J
19
0:
0#
1"
#700000
1+
17
1C
0M
0J
1K
18
09
0"
1!
#800000
0+
0*
0)
07
06
05
0A
0B
0C
1M
1L
1N
0D
0K
1O
08
1?
0!
1(
#900000
1+
17
1C
0M
1D
1E
0O
1>
0?
1'
0(
