MyMux2to1/simulation/qsim/MyMux2to1.msim.vcd
$comment
	File created using the following command:
		vcd file MyMux2to1.msim.vcd -direction
$end
$date
	Sun Mar 29 11:55:35 2026
$end
$version
	ModelSim Version 10.5b
$end
$timescale
	1ps
$end

$scope module mymux2to1_vhd_vec_tst $end
$var wire 1 ! A $end
$var wire 1 " B $end
$var wire 1 # Q $end
$var wire 1 $ S $end

$scope module i1 $end
$var wire 1 % gnd $end
$var wire 1 & vcc $end
$var wire 1 ' unknown $end
$var wire 1 ( devoe $end
$var wire 1 ) devclrn $end
$var wire 1 * devpor $end
$var wire 1 + ww_devoe $end
$var wire 1 , ww_devclrn $end
$var wire 1 - ww_devpor $end
$var wire 1 . ww_A $end
$var wire 1 / ww_B $end
$var wire 1 0 ww_S $end
$var wire 1 1 ww_Q $end
$var wire 1 2 \~QUARTUS_CREATED_GND~I_combout\ $end
$var wire 1 3 \S~input_o\ $end
$var wire 1 4 \B~input_o\ $end
$var wire 1 5 \A~input_o\ $end
$var wire 1 6 \v3|Q~0_combout\ $end
$var wire 1 7 \ALT_INV_A~input_o\ $end
$var wire 1 8 \ALT_INV_S~input_o\ $end
$var wire 1 9 \ALT_INV_B~input_o\ $end
$upscope $end
$upscope $end
$enddefinitions $end
#0
$dumpvars
0!
1"
0#
0$
0%
1&
x'
1(
1)
1*
1+
1,
1-
0.
1/
00
01
x2
03
14
05
06
17
18
09
$end
#125000
1$
10
13
08
16
11
1#
#250000
0$
00
03
18
06
01
0#
#375000
1$
10
13
08
16
11
1#
#500000
0$
00
03
18
06
01
0#
#625000
1$
10
13
08
16
11
1#
#750000
0$
00
03
18
06
01
0#
#875000
1$
10
13
08
16
11
1#
